{
  "name": "Pulse Bridge Token List",
  "version": {
    "major": 0,
    "minor": 2,
    "patch": 0
  },
  "keywords": ["pulsebridge", "tokens", "trusted"],
  "logoURI": "https://pls153105-staging.s3.eu-west-2.amazonaws.com/pulse-logo.png",
  "timestamp": "2021-11-20T14:16:22+0000",
  "tokens": [
    {
      "name": "HEX on Ropsten",
      "chainId": 3,
      "symbol": "rHEX",
      "decimals": 8,
      "address": "0xed04a42878b6d1d7746e3cfefca224f8b705e9a5",
      "logoURI": "https://tokens.1inch.io/0x2b591e99afe9f32eaa6214f7b7629768c40eeb39.png"
    },
    {
      "name": "Wrapped Ether",
      "chainId": 3,
      "symbol": "WETH",
      "decimals": 18,
      "address": "0x6697021aDA2692f7C5cFAee0b62135D64f242e85",
      "logoURI": "https://raw.githubusercontent.com/trustwallet/assets/master/blockchains/ethereum/assets/0xC02aaA39b223FE8D0A0e5C4F27eAD9083C756Cc2/logo.png"
    },
    {
      "name": "Wrapped Pulse on Ropsten",
      "chainId": 3,
      "symbol": "WPLS",
      "decimals": 18,
      "address": "0xdbe6f53c5eccbc8ab5891306dae3e87d60a1f26d",
      "logoURI": "https://pls153105-staging.s3.eu-west-2.amazonaws.com/pulse-logo.png"
    },
    {
      "name": "HEX",
      "chainId": 940,
      "symbol": "HEX",
      "decimals": 8,
      "address": "0x2b591e99afe9f32eaa6214f7b7629768c40eeb39",
      "logoURI": "https://tokens.1inch.io/0x2b591e99afe9f32eaa6214f7b7629768c40eeb39.png"
    },
    {
      "name": "Wrapped Ether on PulseChain",
      "chainId": 940,
      "symbol": "WETH",
      "decimals": 18,
      "address": "0x67baba9736C26728d0CdadC4bfB618ad61a2e3F6",
      "logoURI": "https://raw.githubusercontent.com/trustwallet/assets/master/blockchains/ethereum/assets/0xC02aaA39b223FE8D0A0e5C4F27eAD9083C756Cc2/logo.png"
    },
    {
      "name": "Wrapped Pulse",
      "chainId": 940,
      "symbol": "WPLS",
      "decimals": 18,
      "address": "0x608e30b34AA9Bf9192EFc275314Fc84Ce94E4DdF",
      "logoURI": "https://pls153105-staging.s3.eu-west-2.amazonaws.com/pulse-logo.png"
    }
  ]
}
